%YAML 1.1
%TAG !u! tag:unity3d.com,2011:
--- !u!74 &7400000
AnimationClip:
  m_ObjectHideFlags: 0
  m_PrefabParentObject: {fileID: 0}
  m_PrefabInternal: {fileID: 0}
  m_Name: loop
  serializedVersion: 6
  m_Legacy: 0
  m_Compressed: 0
  m_UseHighQualityCurve: 1
  m_RotationCurves: []
  m_CompressedRotationCurves: []
  m_EulerCurves: []
  m_PositionCurves: []
  m_ScaleCurves: []
  m_FloatCurves: []
  m_PPtrCurves:
  - curve:
    - time: 0
      value: {fileID: 21300000, guid: 3ab74705d74a6e74384a20895f7a6e1c, type: 3}
    - time: 0.25
      value: {fileID: 21300002, guid: 3ab74705d74a6e74384a20895f7a6e1c, type: 3}
    - time: 0.5
      value: {fileID: 21300004, guid: 3ab74705d74a6e74384a20895f7a6e1c, type: 3}
    - time: 0.75
      value: {fileID: 21300006, guid: 3ab74705d74a6e74384a20895f7a6e1c, type: 3}
    - time: 1
      value: {fileID: 21300008, guid: 3ab74705d74a6e74384a20895f7a6e1c, type: 3}
    - time: 1.25
      value: {fileID: 21300010, guid: 3ab74705d74a6e74384a20895f7a6e1c, type: 3}
    - time: 1.5
      value: {fileID: 21300012, guid: 3ab74705d74a6e74384a20895f7a6e1c, type: 3}
    - time: 1.75
      value: {fileID: 21300014, guid: 3ab74705d74a6e74384a20895f7a6e1c, type: 3}
    - time: 2
      value: {fileID: 21300016, guid: 3ab74705d74a6e74384a20895f7a6e1c, type: 3}
    - time: 2.25
      value: {fileID: 21300018, guid: 3ab74705d74a6e74384a20895f7a6e1c, type: 3}
    - time: 2.5
      value: {fileID: 21300020, guid: 3ab74705d74a6e74384a20895f7a6e1c, type: 3}
    - time: 2.75
      value: {fileID: 21300022, guid: 3ab74705d74a6e74384a20895f7a6e1c, type: 3}
    - time: 3
      value: {fileID: 21300024, guid: 3ab74705d74a6e74384a20895f7a6e1c, type: 3}
    - time: 3.25
      value: {fileID: 21300026, guid: 3ab74705d74a6e74384a20895f7a6e1c, type: 3}
    - time: 3.5
      value: {fileID: 21300028, guid: 3ab74705d74a6e74384a20895f7a6e1c, type: 3}
    - time: 3.75
      value: {fileID: 21300030, guid: 3ab74705d74a6e74384a20895f7a6e1c, type: 3}
    - time: 4
      value: {fileID: 21300032, guid: 3ab74705d74a6e74384a20895f7a6e1c, type: 3}
    - time: 4.25
      value: {fileID: 21300034, guid: 3ab74705d74a6e74384a20895f7a6e1c, type: 3}
    - time: 4.5
      value: {fileID: 21300036, guid: 3ab74705d74a6e74384a20895f7a6e1c, type: 3}
    - time: 4.75
      value: {fileID: 21300038, guid: 3ab74705d74a6e74384a20895f7a6e1c, type: 3}
    - time: 5
      value: {fileID: 21300040, guid: 3ab74705d74a6e74384a20895f7a6e1c, type: 3}
    - time: 5.25
      value: {fileID: 21300042, guid: 3ab74705d74a6e74384a20895f7a6e1c, type: 3}
    - time: 5.5
      value: {fileID: 21300044, guid: 3ab74705d74a6e74384a20895f7a6e1c, type: 3}
    - time: 5.75
      value: {fileID: 21300046, guid: 3ab74705d74a6e74384a20895f7a6e1c, type: 3}
    - time: 6
      value: {fileID: 21300048, guid: 3ab74705d74a6e74384a20895f7a6e1c, type: 3}
    - time: 6.25
      value: {fileID: 21300050, guid: 3ab74705d74a6e74384a20895f7a6e1c, type: 3}
    - time: 6.5
      value: {fileID: 21300052, guid: 3ab74705d74a6e74384a20895f7a6e1c, type: 3}
    - time: 6.75
      value: {fileID: 21300054, guid: 3ab74705d74a6e74384a20895f7a6e1c, type: 3}
    - time: 7
      value: {fileID: 21300056, guid: 3ab74705d74a6e74384a20895f7a6e1c, type: 3}
    - time: 7.25
      value: {fileID: 21300058, guid: 3ab74705d74a6e74384a20895f7a6e1c, type: 3}
    - time: 7.5
      value: {fileID: 21300060, guid: 3ab74705d74a6e74384a20895f7a6e1c, type: 3}
    - time: 7.75
      value: {fileID: 21300062, guid: 3ab74705d74a6e74384a20895f7a6e1c, type: 3}
    - time: 8
      value: {fileID: 21300064, guid: 3ab74705d74a6e74384a20895f7a6e1c, type: 3}
    - time: 8.25
      value: {fileID: 21300066, guid: 3ab74705d74a6e74384a20895f7a6e1c, type: 3}
    - time: 8.5
      value: {fileID: 21300068, guid: 3ab74705d74a6e74384a20895f7a6e1c, type: 3}
    attribute: m_Sprite
    path: 
    classID: 114
    script: {fileID: -765806418, guid: f70555f144d8491a825f0804e09c671c, type: 3}
  m_SampleRate: 4
  m_WrapMode: 0
  m_Bounds:
    m_Center: {x: 0, y: 0, z: 0}
    m_Extent: {x: 0, y: 0, z: 0}
  m_ClipBindingConstant:
    genericBindings:
    - serializedVersion: 2
      path: 0
      attribute: 2015549526
      script: {fileID: -765806418, guid: f70555f144d8491a825f0804e09c671c, type: 3}
      typeID: 114
      customType: 0
      isPPtrCurve: 1
    pptrCurveMapping:
    - {fileID: 21300000, guid: 3ab74705d74a6e74384a20895f7a6e1c, type: 3}
    - {fileID: 21300002, guid: 3ab74705d74a6e74384a20895f7a6e1c, type: 3}
    - {fileID: 21300004, guid: 3ab74705d74a6e74384a20895f7a6e1c, type: 3}
    - {fileID: 21300006, guid: 3ab74705d74a6e74384a20895f7a6e1c, type: 3}
    - {fileID: 21300008, guid: 3ab74705d74a6e74384a20895f7a6e1c, type: 3}
    - {fileID: 21300010, guid: 3ab74705d74a6e74384a20895f7a6e1c, type: 3}
    - {fileID: 21300012, guid: 3ab74705d74a6e74384a20895f7a6e1c, type: 3}
    - {fileID: 21300014, guid: 3ab74705d74a6e74384a20895f7a6e1c, type: 3}
    - {fileID: 21300016, guid: 3ab74705d74a6e74384a20895f7a6e1c, type: 3}
    - {fileID: 21300018, guid: 3ab74705d74a6e74384a20895f7a6e1c, type: 3}
    - {fileID: 21300020, guid: 3ab74705d74a6e74384a20895f7a6e1c, type: 3}
    - {fileID: 21300022, guid: 3ab74705d74a6e74384a20895f7a6e1c, type: 3}
    - {fileID: 21300024, guid: 3ab74705d74a6e74384a20895f7a6e1c, type: 3}
    - {fileID: 21300026, guid: 3ab74705d74a6e74384a20895f7a6e1c, type: 3}
    - {fileID: 21300028, guid: 3ab74705d74a6e74384a20895f7a6e1c, type: 3}
    - {fileID: 21300030, guid: 3ab74705d74a6e74384a20895f7a6e1c, type: 3}
    - {fileID: 21300032, guid: 3ab74705d74a6e74384a20895f7a6e1c, type: 3}
    - {fileID: 21300034, guid: 3ab74705d74a6e74384a20895f7a6e1c, type: 3}
    - {fileID: 21300036, guid: 3ab74705d74a6e74384a20895f7a6e1c, type: 3}
    - {fileID: 21300038, guid: 3ab74705d74a6e74384a20895f7a6e1c, type: 3}
    - {fileID: 21300040, guid: 3ab74705d74a6e74384a20895f7a6e1c, type: 3}
    - {fileID: 21300042, guid: 3ab74705d74a6e74384a20895f7a6e1c, type: 3}
    - {fileID: 21300044, guid: 3ab74705d74a6e74384a20895f7a6e1c, type: 3}
    - {fileID: 21300046, guid: 3ab74705d74a6e74384a20895f7a6e1c, type: 3}
    - {fileID: 21300048, guid: 3ab74705d74a6e74384a20895f7a6e1c, type: 3}
    - {fileID: 21300050, guid: 3ab74705d74a6e74384a20895f7a6e1c, type: 3}
    - {fileID: 21300052, guid: 3ab74705d74a6e74384a20895f7a6e1c, type: 3}
    - {fileID: 21300054, guid: 3ab74705d74a6e74384a20895f7a6e1c, type: 3}
    - {fileID: 21300056, guid: 3ab74705d74a6e74384a20895f7a6e1c, type: 3}
    - {fileID: 21300058, guid: 3ab74705d74a6e74384a20895f7a6e1c, type: 3}
    - {fileID: 21300060, guid: 3ab74705d74a6e74384a20895f7a6e1c, type: 3}
    - {fileID: 21300062, guid: 3ab74705d74a6e74384a20895f7a6e1c, type: 3}
    - {fileID: 21300064, guid: 3ab74705d74a6e74384a20895f7a6e1c, type: 3}
    - {fileID: 21300066, guid: 3ab74705d74a6e74384a20895f7a6e1c, type: 3}
    - {fileID: 21300068, guid: 3ab74705d74a6e74384a20895f7a6e1c, type: 3}
  m_AnimationClipSettings:
    serializedVersion: 2
    m_AdditiveReferencePoseClip: {fileID: 0}
    m_AdditiveReferencePoseTime: 0
    m_StartTime: 0
    m_StopTime: 8.75
    m_OrientationOffsetY: 0
    m_Level: 0
    m_CycleOffset: 0
    m_HasAdditiveReferencePose: 0
    m_LoopTime: 1
    m_LoopBlend: 0
    m_LoopBlendOrientation: 0
    m_LoopBlendPositionY: 0
    m_LoopBlendPositionXZ: 0
    m_KeepOriginalOrientation: 0
    m_KeepOriginalPositionY: 1
    m_KeepOriginalPositionXZ: 0
    m_HeightFromFeet: 0
    m_Mirror: 0
  m_EditorCurves: []
  m_EulerEditorCurves: []
  m_HasGenericRootTransform: 0
  m_HasMotionFloatCurves: 0
  m_GenerateMotionCurves: 0
  m_Events: []
