%YAML 1.1
%TAG !u! tag:unity3d.com,2011:
--- !u!1045 &1
EditorBuildSettings:
  m_ObjectHideFlags: 0
  serializedVersion: 2
  m_Scenes:
  - enabled: 1
    path: Assets/_Scenes/01 Splash screen.unity
    guid: ed77611fc5382b54fb40901344d519f1
  - enabled: 1
    path: Assets/_Scenes/02a mainmenu.unity
    guid: 408c1b4ee5aa7c24fa576233e55de87d
  - enabled: 1
    path: Assets/_Scenes/03a Game.unity
    guid: 24e640439a634f745bf633ee3d3bd2fc
  - enabled: 1
    path: Assets/_Scenes/04a Lose.unity
    guid: 4b79f1c3df66506479d4b9bf5f62e788
